…
There are 11 API endpoints as part of Health Canada’s Drug Product
Database API. Each of these endpoints will be demonstrated in the
following sections.

``` r
library(dpdr)
```

### Active Ingredient

We can search for active ingredient information based on the drug code…

``` r
dpd_active_ingredient(id = 48905)
#> # A tibble: 23 × 6
#>    dosage_unit dosage_value drug_code ingredient_name     strength strength_unit
#>    <chr>       <chr>            <int> <chr>               <chr>    <chr>        
#>  1 ""          ""               48905 VITAMIN A           1250     UNIT         
#>  2 ""          ""               48905 BETA-CAROTENE (PRO… 2916     UNIT         
#>  3 ""          ""               48905 VITAMIN B1          2.25     MG           
#>  4 ""          ""               48905 VITAMIN B2          3.75     MG           
#>  5 ""          ""               48905 NICOTINAMIDE        20       MG           
#>  6 ""          ""               48905 VITAMIN B6          5        MG           
#>  7 ""          ""               48905 D-PANTOTHENIC ACID  10       MG           
#>  8 ""          ""               48905 FOLIC ACID          0.2      MG           
#>  9 ""          ""               48905 BIOTIN              75       MCG          
#> 10 ""          ""               48905 VITAMIN B12         9        MCG          
#> # ℹ 13 more rows
```
…
``` r
dpd_drug_product(din = '00326925')
#> # A tibble: 1 × 9
#>   drug_code class_name drug_identification_number brand_name descriptor
#>       <int> <chr>      <chr>                      <chr>      <chr>     
#> 1      2049 Human      00326925                   SINEQUAN   ""        
#> # ℹ 4 more variables: number_of_ais <chr>, ai_group_no <chr>,
#> #   company_name <chr>, last_update_date <chr>
```

We can also find the list of drugs based on the drugs product status.

``` r
dpd_drug_product(status = 1)
#> # A tibble: 3,970 × 9
#>    drug_code class_name   drug_identification_number brand_name       descriptor
#>        <int> <chr>        <chr>                      <chr>            <chr>     
#>  1      3724 Veterinary   00455423                   COOL CAST        ""        
#>  2      3312 Veterinary   00455431                   ICE O GEL        ""        
#>  3      3297 Veterinary   00455458                   FREEZEX HOOF FR… ""        
#>  4      6248 Veterinary   00651583                   WIND-AID         ""        
#>  5      6249 Veterinary   00651591                   CHOATES VETERIN… ""        
#>  6     45666 Human        00654493                   PMS-AMITRIPTYLI… ""        
#>  7     21854 Disinfectant 01931814                   NUGEN R-82       ""        
#>  8     21855 Disinfectant 01931822                   NUGEN S-18       ""        
#>  9     25876 Disinfectant 02008459                   NUGEN S-21       ""        
#> 10     25882 Disinfectant 02008505                   NUGEN S-38       ""        
#> # ℹ 3,960 more rows
#> # ℹ 4 more variables: number_of_ais <chr>, ai_group_no <chr>,
#> #   company_name <chr>, last_update_date <chr>
```
…
### Product Status

We can query the product status of a drug product.

``` r
dpd_product_status()
#> # A tibble: 57,818 × 7
#>    drug_code status   history_date original_market_date external_status_code
#>        <int> <chr>    <chr>        <chr>                               <int>
#>  1     89155 Approved 2013-05-23   <NA>                                    1
#>  2     89186 Approved 2013-05-30   <NA>                                    1
#>  3     88986 Approved 2013-04-22   <NA>                                    1
#>  4     89018 Approved 2013-05-01   <NA>                                    1
#>  5     88575 Approved 2013-01-23   <NA>                                    1
#>  6     88859 Approved 2017-05-17   <NA>                                    1
#>  7     89101 Approved 2013-05-08   <NA>                                    1
#>  8     88230 Approved 2014-09-10   <NA>                                    1
#>  9     88324 Approved 2016-01-18   <NA>                                    1
#> 10     88317 Approved 2017-02-16   <NA>                                    1
#> # ℹ 57,808 more rows
#> # ℹ 2 more variables: expiration_date <chr>, lot_number <chr>
```
…
