…
There are 11 API endpoints as part of Health Canada’s Drug Product
Database API. Each of these endpoints will be demonstrated in the
following sections.

``` r
library(dpdr)
```

### Active Ingredient

We can search for active ingredient information based on the drug code…

``` r
dpd_ai_id(48905)
#> # A tibble: 23 × 6
#>    dosage_unit dosage_value drug_code ingredient_name     strength strength_unit
#>    <chr>       <chr>            <int> <chr>               <chr>    <chr>        
#>  1 ""          ""               48905 VITAMIN A           1250     UNIT         
#>  2 ""          ""               48905 BETA-CAROTENE (PRO… 2916     UNIT         
#>  3 ""          ""               48905 VITAMIN B1          2.25     MG           
#>  4 ""          ""               48905 VITAMIN B2          3.75     MG           
#>  5 ""          ""               48905 NICOTINAMIDE        20       MG           
#>  6 ""          ""               48905 VITAMIN B6          5        MG           
#>  7 ""          ""               48905 D-PANTOTHENIC ACID  10       MG           
#>  8 ""          ""               48905 FOLIC ACID          0.2      MG           
#>  9 ""          ""               48905 BIOTIN              75       MCG          
#> 10 ""          ""               48905 VITAMIN B12         9        MCG          
#> # ℹ 13 more rows
```
…
We can also find the list of drugs based on the drugs product status
(see `?dpd_drug_status` for more information).

``` r
dpd_drug_status(6)
#> # A tibble: 2,770 × 9
#>    drug_code class_name drug_identification_number brand_name         descriptor
#>        <int> <chr>      <chr>                      <chr>              <chr>     
#>  1       209 Human      00001686                   XYLOCAINE VISCOUS… ""        
#>  2       157 Human      00010332                   ENTROPHEN 325MG T… ""        
#>  3       468 Human      00010340                   ENTROPHEN ECT 650… ""        
#>  4      1184 Human      00015547                   KEFLEX             ""        
#>  5      1212 Human      00035645                   KEFLEX             ""        
#>  6      1748 Human      00037958                   DEXTROSE INJECTIO… ""        
#>  7      1751 Human      00038873                   5% DEXTROSE AND 0… ""        
#>  8      2575 Human      00038881                   3.33% DEXTROSE AN… ""        
#>  9      1548 Human      00039306                   LACTATE 1-2-3 INJ… ""        
#> 10      1739 Human      00039489                   NORMOSOL-M & 5% D… "SINGLE-D…
#> # ℹ 2,760 more rows
#> # ℹ 4 more variables: number_of_ais <chr>, ai_group_no <chr>,
#> #   company_name <chr>, last_update_date <chr>
```
…
