Active Ingredient — dpd_ai_id • dpdr
…
dosage_value: Quantitative value of the active ingredient dosage.

drug_code: Code assigned to each drug product.

ingredient_name: Ingredient name.

strength: Quantitative value of the active ingredient strength.

strength_unit: Active ingredient strength unit.

    Examples

dpd_ai_id(48905)
#> # A tibble: 23 × 6
#>    dosage_unit dosage_value drug_code ingredient_name     strength strength_unit
#>    <chr>       <chr>            <int> <chr>               <chr>    <chr>        
#>  1 ""          ""               48905 VITAMIN A           1250     UNIT         
#>  2 ""          ""               48905 BETA-CAROTENE (PRO… 2916     UNIT         
#>  3 ""          ""               48905 VITAMIN B1          2.25     MG           
#>  4 ""          ""               48905 VITAMIN B2          3.75     MG           
#>  5 ""          ""               48905 NICOTINAMIDE        20       MG           
#>  6 ""          ""               48905 VITAMIN B6          5        MG           
#>  7 ""          ""               48905 D-PANTOTHENIC ACID  10       MG           
#>  8 ""          ""               48905 FOLIC ACID          0.2      MG           
#>  9 ""          ""               48905 BIOTIN              75       MCG          
#> 10 ""          ""               48905 VITAMIN B12         9        MCG          
#> # ℹ 13 more rows
…
